[
  {
    "businessName": "Beerlin",
    "email": "contacto@beerlinmendoza.com.ar",
    "businessCategory": "GASTRONOMÍA"
  },
  {
    "businessName": "Black Pizza",
    "email": "Fededolinsky@gmail.com",
    "businessCategory": "GASTRONOMÍA"
  }
]